%YAML 1.1
%TAG !u! tag:unity3d.com,2011:
--- !u!114 &3536481090870537427
MonoBehaviour:
  m_ObjectHideFlags: 0
  m_CorrespondingSourceObject: {fileID: 0}
  m_PrefabInstance: {fileID: 0}
  m_PrefabAsset: {fileID: 0}
  m_GameObject: {fileID: 2334086414769272634}
  m_Enabled: 0
  m_EditorHideFlags: 0
  m_Script: {fileID: 11500000, guid: fbf3575480402db40813e763382412fb, type: 3}
  m_Name: 
  m_EditorClassIdentifier: 
  color: 0
  eraseRenderer: 0
  originalLayer: 0
  originalMaterials: []
--- !u!114 &6257674695155413085
MonoBehaviour:
  m_ObjectHideFlags: 0
  m_CorrespondingSourceObject: {fileID: 0}
  m_PrefabInstance: {fileID: 0}
  m_PrefabAsset: {fileID: 0}
  m_GameObject: {fileID: 2334086414769272634}
  m_Enabled: 1
  m_EditorHideFlags: 0
  m_Script: {fileID: 11500000, guid: fbf3575480402db40813e763382412fb, type: 3}
  m_Name: 
  m_EditorClassIdentifier: 
  color: 0
  eraseRenderer: 0
  originalLayer: 0
  originalMaterials: []
--- !u!1 &5769405782021344495
GameObject:
  m_ObjectHideFlags: 0
  m_CorrespondingSourceObject: {fileID: 0}
  m_PrefabInstance: {fileID: 0}
  m_PrefabAsset: {fileID: 0}
  serializedVersion: 6
  m_Component:
  - component: {fileID: 4082725392074955250}
  - component: {fileID: 4507795566555040741}
  - component: {fileID: 5099919534856702760}
  - component: {fileID: 3149081365837527393}
  - component: {fileID: 2438222074330021335}
  - component: {fileID: 6499914414861400238}
  - component: {fileID: 6357135997341874585}
  - component: {fileID: 7536995459562105034}
  m_Layer: 14
  m_Name: Tree1
  m_TagString: Ambient
  m_Icon: {fileID: 0}
  m_NavMeshLayer: 0
  m_StaticEditorFlags: 0
  m_IsActive: 1
--- !u!4 &4082725392074955250
Transform:
  m_ObjectHideFlags: 0
  m_CorrespondingSourceObject: {fileID: 0}
  m_PrefabInstance: {fileID: 0}
  m_PrefabAsset: {fileID: 0}
  m_GameObject: {fileID: 5769405782021344495}
  m_LocalRotation: {x: 0, y: 0, z: 0, w: 1}
  m_LocalPosition: {x: -28.89, y: -0.0018310547, z: 79.13}
  m_LocalScale: {x: 1, y: 1, z: 1}
  m_Children:
  - {fileID: 5424558414407807661}
  - {fileID: 2334086414769367834}
  m_Father: {fileID: 0}
  m_RootOrder: 0
  m_LocalEulerAnglesHint: {x: 0, y: 0, z: 0}
--- !u!205 &4507795566555040741
LODGroup:
  m_ObjectHideFlags: 0
  m_CorrespondingSourceObject: {fileID: 0}
  m_PrefabInstance: {fileID: 0}
  m_PrefabAsset: {fileID: 0}
  m_GameObject: {fileID: 5769405782021344495}
  serializedVersion: 2
  m_LocalReferencePoint: {x: -0.20009398, y: 2.724399, z: 0.16998458}
  m_Size: 6.3934646
  m_FadeMode: 0
  m_AnimateCrossFading: 0
  m_LastLODIsBillboard: 0
  m_LODs:
  - screenRelativeHeight: 0.085673645
    fadeTransitionWidth: 0
    renderers:
    - renderer: {fileID: 2334086414767073784}
  m_Enabled: 1
--- !u!208 &5099919534856702760
NavMeshObstacle:
  m_ObjectHideFlags: 0
  m_CorrespondingSourceObject: {fileID: 0}
  m_PrefabInstance: {fileID: 0}
  m_PrefabAsset: {fileID: 0}
  m_GameObject: {fileID: 5769405782021344495}
  m_Enabled: 1
  serializedVersion: 3
  m_Shape: 0
  m_Extents: {x: 0.55, y: 2.535, z: 0.55}
  m_MoveThreshold: 0.1
  m_Carve: 1
  m_CarveOnlyStationary: 1
  m_Center: {x: 0.029000001, y: 2.37, z: 0.022000002}
  m_TimeToStationary: 0.5
--- !u!136 &3149081365837527393
CapsuleCollider:
  m_ObjectHideFlags: 0
  m_CorrespondingSourceObject: {fileID: 0}
  m_PrefabInstance: {fileID: 0}
  m_PrefabAsset: {fileID: 0}
  m_GameObject: {fileID: 5769405782021344495}
  m_Material: {fileID: 0}
  m_IsTrigger: 0
  m_Enabled: 1
  m_Radius: 0.67
  m_Height: 5.02
  m_Direction: 1
  m_Center: {x: 0.029491723, y: 2.31, z: 0.02241379}
--- !u!114 &2438222074330021335
MonoBehaviour:
  m_ObjectHideFlags: 0
  m_CorrespondingSourceObject: {fileID: 0}
  m_PrefabInstance: {fileID: 0}
  m_PrefabAsset: {fileID: 0}
  m_GameObject: {fileID: 5769405782021344495}
  m_Enabled: 1
  m_EditorHideFlags: 0
  m_Script: {fileID: 11500000, guid: 36d965436cdb2714590c65b6eb22ac44, type: 3}
  m_Name: 
  m_EditorClassIdentifier: 
  team: -1
  tear: 0
  ownerId: 1
  maxHealth: 100
  health: 100
  live: 1
  pointToInteract: {fileID: 0}
  tearDisplay: []
  debug: 0
  isWalkAround: 0
  timeToWalk: 0
  timerToWalk: 0
  visionDistanve: 10
  _skillInfo:
    uniqueName: 
    readableName: 
    readableDescription: 
    imagePath: 
    timeToBuild: 0
    costFood: 0
    costGold: 0
    costWood: 0
    productionHotkey: 0
    skillType: 1
  _skillConditions: 0
  unitPosition: {x: 0, y: 0, z: 0}
  interactType: 0
  attackTimer: 0
  attackDelayTimer: 0
  attacked: 0
  defaultStatistic:
    damage: 10
    rangeAttack: 2
    attackTime: 2
    attackDelay: 0.5
    damageAfterTimer: 1
    attackType: 4
    stabbingResist: 0
    cuttingResist: 0
    bitingResist: 0
    magicResist: 0
    agrRange: 20
    alertRange: 10
  actionEffect: {fileID: 0}
  behaviorType: 1
  bloodEffect: {fileID: 0}
  bloodOnBroundEffects: []
  destroyEffectPrefab: {fileID: 0}
  destroyEffectHandler: {fileID: 0}
  timeToDestroy: 30
  destroyAfter: 7
  toUndergroundSpeed: 2
  sendToDestroy: 0
  delayToMoveUnderground: 3
  weapon:
    prefab: {fileID: 0}
    holder: {fileID: 0}
  agent: {fileID: 0}
  obstacle: {fileID: 0}
  anim: {fileID: 0}
  target: {fileID: 0}
  tempDestinationPoint: {x: 0, y: 0, z: 0}
  previousPosition: {x: 0, y: 0, z: 0}
  curSpeed: 0
  cameraController: {fileID: 0}
  skillList: []
  producedUnits: []
  spawnPoint: {fileID: 0}
  spawnTarget: {x: 0, y: 0, z: 0}
  spawnTargetObject: {fileID: 0}
  buildTimer: 0
  productionQuery: []
  HTMLHealthFile: {fileID: 0}
  InfoHTMLOffset: {x: 0, y: 4, z: 0}
  pointMarkerPrefab: {fileID: 0}
  HTMLHealthSize: {x: 0, y: 50}
  visionToolPrefab: {fileID: 0}
  visionCount: 0
  uqeryLimit: 5
  beenSeen: 0
  holderObject: {fileID: 0}
  timerToCreateHolder: 0
  holderToolInfo:
    prefab: {fileID: 0}
    holder: {fileID: 0}
  tempSpeed: 0
  attackedTeam: 0
  pointMarker: {fileID: 0}
  canBeSelected: 1
  visionTool: {fileID: 0}
  unitSelectionComponent: {fileID: 0}
  resourceCapacityType: 3
  resourceCapacity: 150
  resourceEndless: 0
  sourceType: 0
  storedResources: 
  isInCameraView: 0
  state: 3
  magnitDistance: 2
  tempMaterialsMode: 
  terrainChangeInfo:
    offset: {x: 0, y: 0}
    size: {x: 0, y: 0}
    layer: 0
    value: 0
    changeTexture: 0
    removeGrass: 0
--- !u!114 &6499914414861400238
MonoBehaviour:
  m_ObjectHideFlags: 0
  m_CorrespondingSourceObject: {fileID: 0}
  m_PrefabInstance: {fileID: 0}
  m_PrefabAsset: {fileID: 0}
  m_GameObject: {fileID: 5769405782021344495}
  m_Enabled: 1
  m_EditorHideFlags: 0
  m_Script: {fileID: 11500000, guid: 0e11b0a92f7104e4f8c2693c0cf315ba, type: 3}
  m_Name: 
  m_EditorClassIdentifier: 
  canBeSelected: 1
  isSelected: 0
  projector: {fileID: 8931972415939345786}
--- !u!114 &6357135997341874585
MonoBehaviour:
  m_ObjectHideFlags: 0
  m_CorrespondingSourceObject: {fileID: 0}
  m_PrefabInstance: {fileID: 0}
  m_PrefabAsset: {fileID: 0}
  m_GameObject: {fileID: 5769405782021344495}
  m_Enabled: 1
  m_EditorHideFlags: 0
  m_Script: {fileID: 11500000, guid: aa584fbee541324448dd18d8409c7a41, type: 3}
  m_Name: 
  m_EditorClassIdentifier: 
  ObservedComponentsFoldoutOpen: 1
  Group: 0
  prefixField: -1
  Synchronization: 3
  OwnershipTransfer: 0
  ObservedComponents:
  - {fileID: 7536995459562105034}
  viewIdField: 0
  InstantiationId: 13
  isRuntimeInstantiated: 0
--- !u!114 &7536995459562105034
MonoBehaviour:
  m_ObjectHideFlags: 0
  m_CorrespondingSourceObject: {fileID: 0}
  m_PrefabInstance: {fileID: 0}
  m_PrefabAsset: {fileID: 0}
  m_GameObject: {fileID: 5769405782021344495}
  m_Enabled: 1
  m_EditorHideFlags: 0
  m_Script: {fileID: 11500000, guid: 627855c7f81362d41938ffe0b1475957, type: 3}
  m_Name: 
  m_EditorClassIdentifier: 
  m_SynchronizePosition: 1
  m_SynchronizeRotation: 1
  m_SynchronizeScale: 0
--- !u!1 &8931972415939345786
GameObject:
  m_ObjectHideFlags: 0
  m_CorrespondingSourceObject: {fileID: 0}
  m_PrefabInstance: {fileID: 0}
  m_PrefabAsset: {fileID: 0}
  serializedVersion: 6
  m_Component:
  - component: {fileID: 5424558414407807661}
  - component: {fileID: 8386866283130211497}
  m_Layer: 14
  m_Name: Projector
  m_TagString: Untagged
  m_Icon: {fileID: 0}
  m_NavMeshLayer: 0
  m_StaticEditorFlags: 0
  m_IsActive: 0
--- !u!4 &5424558414407807661
Transform:
  m_ObjectHideFlags: 0
  m_CorrespondingSourceObject: {fileID: 0}
  m_PrefabInstance: {fileID: 0}
  m_PrefabAsset: {fileID: 0}
  m_GameObject: {fileID: 8931972415939345786}
  m_LocalRotation: {x: -0.06162845, y: 0.7044161, z: -0.7044161, w: -0.06162845}
  m_LocalPosition: {x: 0, y: 2.52, z: 0}
  m_LocalScale: {x: 1, y: 1, z: 1}
  m_Children: []
  m_Father: {fileID: 4082725392074955250}
  m_RootOrder: 0
  m_LocalEulerAnglesHint: {x: 90, y: 0, z: 0}
--- !u!119 &8386866283130211497
Projector:
  m_ObjectHideFlags: 0
  m_CorrespondingSourceObject: {fileID: 0}
  m_PrefabInstance: {fileID: 0}
  m_PrefabAsset: {fileID: 0}
  m_GameObject: {fileID: 8931972415939345786}
  m_Enabled: 1
  serializedVersion: 2
  m_NearClipPlane: 0.1
  m_FarClipPlane: 11.29
  m_FieldOfView: 60
  m_AspectRatio: 1
  m_Orthographic: 1
  m_OrthographicSize: 0.73
  m_Material: {fileID: 2100000, guid: 9e921ee33f8e5ee4884f95bba0a27ce7, type: 2}
  m_IgnoreLayers:
    serializedVersion: 2
    m_Bits: 32311
--- !u!1001 &2334086414769238426
PrefabInstance:
  m_ObjectHideFlags: 0
  serializedVersion: 2
  m_Modification:
    m_TransformParent: {fileID: 4082725392074955250}
    m_Modifications:
    - target: {fileID: 100000, guid: 8606c21208a6abf4aa86e39e9938598b, type: 3}
      propertyPath: m_Name
      value: baum hd med fbx
      objectReference: {fileID: 0}
    - target: {fileID: 400000, guid: 8606c21208a6abf4aa86e39e9938598b, type: 3}
      propertyPath: m_LocalPosition.x
      value: 0
      objectReference: {fileID: 0}
    - target: {fileID: 400000, guid: 8606c21208a6abf4aa86e39e9938598b, type: 3}
      propertyPath: m_LocalPosition.y
      value: 0
      objectReference: {fileID: 0}
    - target: {fileID: 400000, guid: 8606c21208a6abf4aa86e39e9938598b, type: 3}
      propertyPath: m_LocalPosition.z
      value: 0
      objectReference: {fileID: 0}
    - target: {fileID: 400000, guid: 8606c21208a6abf4aa86e39e9938598b, type: 3}
      propertyPath: m_LocalRotation.x
      value: 0
      objectReference: {fileID: 0}
    - target: {fileID: 400000, guid: 8606c21208a6abf4aa86e39e9938598b, type: 3}
      propertyPath: m_LocalRotation.y
      value: 0
      objectReference: {fileID: 0}
    - target: {fileID: 400000, guid: 8606c21208a6abf4aa86e39e9938598b, type: 3}
      propertyPath: m_LocalRotation.z
      value: 0
      objectReference: {fileID: 0}
    - target: {fileID: 400000, guid: 8606c21208a6abf4aa86e39e9938598b, type: 3}
      propertyPath: m_LocalRotation.w
      value: 1
      objectReference: {fileID: 0}
    - target: {fileID: 400000, guid: 8606c21208a6abf4aa86e39e9938598b, type: 3}
      propertyPath: m_RootOrder
      value: 1
      objectReference: {fileID: 0}
    - target: {fileID: 400000, guid: 8606c21208a6abf4aa86e39e9938598b, type: 3}
      propertyPath: m_LocalEulerAnglesHint.x
      value: 0
      objectReference: {fileID: 0}
    - target: {fileID: 400000, guid: 8606c21208a6abf4aa86e39e9938598b, type: 3}
      propertyPath: m_LocalEulerAnglesHint.y
      value: 0
      objectReference: {fileID: 0}
    - target: {fileID: 400000, guid: 8606c21208a6abf4aa86e39e9938598b, type: 3}
      propertyPath: m_LocalEulerAnglesHint.z
      value: 0
      objectReference: {fileID: 0}
    - target: {fileID: 400000, guid: 8606c21208a6abf4aa86e39e9938598b, type: 3}
      propertyPath: m_LocalScale.x
      value: 1.3
      objectReference: {fileID: 0}
    - target: {fileID: 400000, guid: 8606c21208a6abf4aa86e39e9938598b, type: 3}
      propertyPath: m_LocalScale.y
      value: 1.3
      objectReference: {fileID: 0}
    - target: {fileID: 400000, guid: 8606c21208a6abf4aa86e39e9938598b, type: 3}
      propertyPath: m_LocalScale.z
      value: 1.3
      objectReference: {fileID: 0}
    m_RemovedComponents: []
  m_SourcePrefab: {fileID: 100100000, guid: 8606c21208a6abf4aa86e39e9938598b, type: 3}
--- !u!1 &2334086414769272634 stripped
GameObject:
  m_CorrespondingSourceObject: {fileID: 100000, guid: 8606c21208a6abf4aa86e39e9938598b,
    type: 3}
  m_PrefabInstance: {fileID: 2334086414769238426}
  m_PrefabAsset: {fileID: 0}
--- !u!4 &2334086414769367834 stripped
Transform:
  m_CorrespondingSourceObject: {fileID: 400000, guid: 8606c21208a6abf4aa86e39e9938598b,
    type: 3}
  m_PrefabInstance: {fileID: 2334086414769238426}
  m_PrefabAsset: {fileID: 0}
--- !u!23 &2334086414767073784 stripped
MeshRenderer:
  m_CorrespondingSourceObject: {fileID: 2300002, guid: 8606c21208a6abf4aa86e39e9938598b,
    type: 3}
  m_PrefabInstance: {fileID: 2334086414769238426}
  m_PrefabAsset: {fileID: 0}
